{
    "food": {
        "items": [
            "minecraft:cake",
            "ThaumicHorizons:barChocolate",
            "ThaumicHorizons:iceCream",
            "harvestcraft:pamcheeseCake",
            "harvestcraft:pamcherrycheeseCake",
            "harvestcraft:pamredvelvetCake",
            "harvestcraft:pamlamingtonCake",
            "harvestcraft:pampavlovaCake",
            "harvestcraft:pamholidayCake",
            "harvestcraft:pampumpkincheeseCake",
            "harvestcraft:cheeseItem",
            "harvestcraft:icecreamItem",
            "harvestcraft:grilledcheeseItem",
            "harvestcraft:pumpkinsoupItem",
            "harvestcraft:carrotsoupItem",
            "harvestcraft:glazedcarrotsItem",
            "harvestcraft:butteredpotatoItem",
            "harvestcraft:loadedbakedpotatoItem",
            "harvestcraft:mashedpotatoesItem",
            "harvestcraft:stuffedmushroomItem",
            "harvestcraft:cheeseburgerItem",
            "harvestcraft:baconcheeseburgerItem",
            "harvestcraft:chocolatebarItem",
            "harvestcraft:hotchocolateItem",
            "harvestcraft:chocolateicecreamItem",
            "harvestcraft:chickenparmasanItem",
            "harvestcraft:pizzaItem",
            "harvestcraft:deluxecheeseburgerItem",
            "harvestcraft:delightedmealItem",
            "harvestcraft:potatocakesItem",
            "harvestcraft:braisedonionsItem",
            "harvestcraft:heartybreakfastItem",
            "harvestcraft:cornonthecobItem",
            "harvestcraft:cornbreadItem",
            "harvestcraft:nachoesItem",
            "harvestcraft:tacoItem",
            "harvestcraft:fishtacoItem",
            "harvestcraft:creamedcornItem",
            "harvestcraft:chocolatestrawberryItem",
            "harvestcraft:trailmixItem",
            "harvestcraft:cucumbersoupItem",
            "harvestcraft:mushroomisottoItem",
            "harvestcraft:refriedbeansItem",
            "harvestcraft:beanburritoItem",
            "harvestcraft:supremepizzaItem",
            "harvestcraft:hotwingsItem",
            "harvestcraft:chilipoppersItem",
            "harvestcraft:chilichocolateItem",
            "harvestcraft:lemonmeringueItem",
            "harvestcraft:lemonchickenItem",
            "harvestcraft:pancakesItem",
            "harvestcraft:blueberrypancakesItem",
            "harvestcraft:chocolatecherryItem",
            "harvestcraft:stuffedeggplantItem",
            "harvestcraft:eggplantparmItem",
            "harvestcraft:coffeeconlecheItem",
            "harvestcraft:mochaicecreamItem",
            "harvestcraft:beetsaladItem",
            "harvestcraft:beetsoupItem",
            "harvestcraft:bakedbeetsItem",
            "harvestcraft:broccolimacItem",
            "harvestcraft:broccolindipItem",
            "harvestcraft:mashedsweetpotatoesItem",
            "harvestcraft:pineappleyogurtItem",
            "harvestcraft:turnipsoupItem",
            "harvestcraft:bakedturnipsItem",
            "harvestcraft:gingerbreadItem",
            "harvestcraft:gingersnapsItem",
            "harvestcraft:softpretzelandmustardItem",
            "harvestcraft:garlicbreadItem",
            "harvestcraft:garlicmashedpotatoesItem",
            "harvestcraft:chickencelerycasseroleItem",
            "harvestcraft:zucchinifriesItem",
            "harvestcraft:zestyzucchiniItem",
            "harvestcraft:zucchinibakeItem",
            "harvestcraft:asparagusquicheItem",
            "harvestcraft:asparagussoupItem",
            "harvestcraft:brownieItem",
            "harvestcraft:papayayogurtItem",
            "harvestcraft:starfruityogurtItem",
            "harvestcraft:creamofavocadosoupItem",
            "harvestcraft:avocadoburritoItem",
            "harvestcraft:fruitcrumbleItem",
            "harvestcraft:pearyogurtItem",
            "harvestcraft:plumyogurtItem",
            "harvestcraft:bananasplitItem",
            "harvestcraft:banananutbreadItem",
            "harvestcraft:bananayogurtItem",
            "harvestcraft:coconutyogurtItem",
            "harvestcraft:orangeyogurtItem",
            "harvestcraft:peachyogurtItem",
            "harvestcraft:keylimepieItem",
            "harvestcraft:limeyogurtItem",
            "harvestcraft:mangoyogurtItem",
            "harvestcraft:pomegranateyogurtItem",
            "harvestcraft:vanillayogurtItem",
            "harvestcraft:chocolatedonutItem",
            "harvestcraft:wafflesItem",
            "harvestcraft:softpretzelItem",
            "harvestcraft:biscuitItem",
            "harvestcraft:creamcookieItem",
            "harvestcraft:jaffaItem",
            "harvestcraft:blueberryyogurtItem",
            "harvestcraft:lemonyogurtItem",
            "harvestcraft:cherryyogurtItem",
            "harvestcraft:strawberryyogurtItem",
            "harvestcraft:grapeyogurtItem",
            "harvestcraft:chocolateyogurtItem",
            "harvestcraft:blackberryyogurtItem",
            "harvestcraft:chocolatemilkItem",
            "harvestcraft:pumpkinyogurtItem",
            "harvestcraft:raspberryyogurtItem",
            "harvestcraft:melonyogurtItem",
            "harvestcraft:kiwiyogurtItem",
            "harvestcraft:plainyogurtItem",
            "harvestcraft:appleyogurtItem",
            "harvestcraft:baklavaItem",
            "harvestcraft:baconmushroomburgerItem",
            "harvestcraft:eggnogItem",
            "harvestcraft:custardItem",
            "harvestcraft:caramelicecreamItem",
            "harvestcraft:mintchocolatechipicemcreamItem",
            "harvestcraft:strawberryicecreamItem",
            "harvestcraft:vanillaicecreamItem",
            "harvestcraft:spicebunItem",
            "harvestcraft:pumpkinoatsconesItem",
            "harvestcraft:leekbaconsoupItem",
            "harvestcraft:herbbutterparsnipsItem",
            "harvestcraft:scallionbakedpotatoItem",
            "harvestcraft:sweetpotatosouffleItem",
            "harvestcraft:apricotyogurtItem",
            "harvestcraft:figyogurtItem",
            "harvestcraft:grapefruityogurtItem",
            "harvestcraft:pecanpieItem",
            "harvestcraft:pralinesItem",
            "harvestcraft:persimmonyogurtItem",
            "harvestcraft:maplesyruppancakesItem",
            "harvestcraft:maplesyrupwafflesItem",
            "harvestcraft:mapleoatmealItem",
            "harvestcraft:peachesandcreamoatmealItem",
            "harvestcraft:toastsandwichItem",
            "harvestcraft:potatoandcheesepirogiItem",
            "harvestcraft:sausageinbreadItem",
            "harvestcraft:chocolatecaramelfudgeItem",
            "harvestcraft:beansontoastItem",
            "harvestcraft:honeycombchocolatebarItem",
            "harvestcraft:cherrycoconutchocolatebarItem",
            "harvestcraft:fairybreadItem",
            "harvestcraft:timtamItem",
            "harvestcraft:damperItem",
            "harvestcraft:beetburgerItem",
            "harvestcraft:ceasarsaladItem",
            "harvestcraft:chaoscookieItem",
            "harvestcraft:chocolatebaconItem",
            "harvestcraft:nutellaItem",
            "harvestcraft:snickersbarItem",
            "harvestcraft:spinachpieItem",
            "harvestcraft:bangersandmashItem",
            "harvestcraft:meatfeastpizzaItem",
            "harvestcraft:mincepieItem",
            "harvestcraft:raspberrytrifleItem",
            "harvestcraft:randomtacoItem",
            "harvestcraft:strawberrymilkshakeItem",
            "harvestcraft:chocolatemilkshakeItem",
            "harvestcraft:bananamilkshakeItem",
            "harvestcraft:cornflakesItem",
            "harvestcraft:cherryicecreamItem",
            "harvestcraft:pistachioicecreamItem",
            "harvestcraft:neapolitanicecreamItem",
            "harvestcraft:spumoniicecreamItem",
            "harvestcraft:croissantItem",
            "harvestcraft:gooseberrymilkshakeItem",
            "harvestcraft:gooseberryyogurtItem",
            "harvestcraft:museliItem",
            "harvestcraft:ploughmanslunchItem",
            "harvestcraft:vindalooItem",
            "harvestcraft:cranberryyogurtItem",
            "harvestcraft:cheeseontoastItem",
            "harvestcraft:tunapotatoItem",
            "harvestcraft:chocolaterollItem",
            "harvestcraft:jamrollItem",
            "harvestcraft:paneerItem",
            "harvestcraft:paneertikkamasalaItem",
            "harvestcraft:potatoandleeksoupItem",
            "harvestcraft:yorkshirepuddingItem",
            "harvestcraft:toadintheholeItem"
        ]
    },
    "name": "Dairy",
    "color": "white"
}