{
    "food": {
        "items": [
            "minecraft:bread",
            "minecraft:cake",
            "minecraft:cookie",
            "Botania:manaCookie:6",
            "WitchingGadgets:item.WG_MagicFood:1",
            "arsmagica2:manaCake",
            "cookingforblockheads:toast",
            "harvestcraft:pamcheeseCake",
            "harvestcraft:pamcarrotCake",
            "harvestcraft:pamcherrycheeseCake",
            "harvestcraft:pampineappleupsidedownCake",
            "harvestcraft:pamchocolatesprinkleCake",
            "harvestcraft:pamredvelvetCake",
            "harvestcraft:pamlamingtonCake",
            "harvestcraft:pampumpkincheeseCake",
            "harvestcraft:sunflowerseedsItem",
            "harvestcraft:barleyItem",
            "harvestcraft:oatsItem",
            "harvestcraft:ryeItem",
            "harvestcraft:cornItem",
            "harvestcraft:sesameseedsItem",
            "harvestcraft:riceItem",
            "harvestcraft:popcornItem",
            "harvestcraft:ricecakeItem",
            "harvestcraft:toastedsesameseedsItem",
            "harvestcraft:toastItem",
            "harvestcraft:grilledcheeseItem",
            "harvestcraft:applepieItem",
            "harvestcraft:pumpkinbreadItem",
            "harvestcraft:stuffedmushroomItem",
            "harvestcraft:chickensandwichItem",
            "harvestcraft:chickennoodlesoupItem",
            "harvestcraft:chickenpotpieItem",
            "harvestcraft:breadedporkchopItem",
            "harvestcraft:hotdogItem",
            "harvestcraft:hamburgerItem",
            "harvestcraft:cheeseburgerItem",
            "harvestcraft:baconcheeseburgerItem",
            "harvestcraft:fishsandwichItem",
            "harvestcraft:fishsticksItem",
            "harvestcraft:fishandchipsItem",
            "harvestcraft:spagettiItem",
            "harvestcraft:spagettiandmeatballsItem",
            "harvestcraft:pizzaItem",
            "harvestcraft:bltItem",
            "harvestcraft:leafychickensandwichItem",
            "harvestcraft:deluxecheeseburgerItem",
            "harvestcraft:delightedmealItem",
            "harvestcraft:heartybreakfastItem",
            "harvestcraft:cornonthecobItem",
            "harvestcraft:cornbreadItem",
            "harvestcraft:tortillaItem",
            "harvestcraft:nachoesItem",
            "harvestcraft:tacoItem",
            "harvestcraft:fishtacoItem",
            "harvestcraft:creamedcornItem",
            "harvestcraft:strawberrypieItem",
            "harvestcraft:pbandjItem",
            "harvestcraft:peanutbuttercookiesItem",
            "harvestcraft:raisincookiesItem",
            "harvestcraft:ricesoupItem",
            "harvestcraft:friedriceItem",
            "harvestcraft:mushroomisottoItem",
            "harvestcraft:curryItem",
            "harvestcraft:rainbowcurryItem",
            "harvestcraft:beansandriceItem",
            "harvestcraft:beanburritoItem",
            "harvestcraft:stuffedpepperItem",
            "harvestcraft:veggiestirfryItem",
            "harvestcraft:supremepizzaItem",
            "harvestcraft:chilipoppersItem",
            "harvestcraft:lemonbarItem",
            "harvestcraft:fishdinnerItem",
            "harvestcraft:lemonmeringueItem",
            "harvestcraft:blueberrypieItem",
            "harvestcraft:blueberrymuffinItem",
            "harvestcraft:pancakesItem",
            "harvestcraft:blueberrypancakesItem",
            "harvestcraft:cherrypieItem",
            "harvestcraft:eggplantparmItem",
            "harvestcraft:broccolimacItem",
            "harvestcraft:creamedbroccolisoupItem",
            "harvestcraft:sweetpotatopieItem",
            "harvestcraft:gingerbreadItem",
            "harvestcraft:gingersnapsItem",
            "harvestcraft:softpretzelandmustardItem",
            "harvestcraft:garlicbreadItem",
            "harvestcraft:zucchinibreadItem",
            "harvestcraft:zucchinifriesItem",
            "harvestcraft:zestyzucchiniItem",
            "harvestcraft:zucchinibakeItem",
            "harvestcraft:walnutraisinbreadItem",
            "harvestcraft:brownieItem",
            "harvestcraft:avocadoburritoItem",
            "harvestcraft:fruitcrumbleItem",
            "harvestcraft:banananutbreadItem",
            "harvestcraft:chickencurryItem",
            "harvestcraft:coconutshrimpItem",
            "harvestcraft:orangechickenItem",
            "harvestcraft:peachcobblerItem",
            "harvestcraft:keylimepieItem",
            "harvestcraft:cinnamonrollItem",
            "harvestcraft:frenchtoastItem",
            "harvestcraft:donutItem",
            "harvestcraft:chocolatedonutItem",
            "harvestcraft:powdereddonutItem",
            "harvestcraft:jellydonutItem",
            "harvestcraft:frosteddonutItem",
            "harvestcraft:wafflesItem",
            "harvestcraft:softpretzelItem",
            "harvestcraft:biscuitItem",
            "harvestcraft:creamcookieItem",
            "harvestcraft:jaffaItem",
            "harvestcraft:friedchickenItem",
            "harvestcraft:footlongItem",
            "harvestcraft:blackberrycobblerItem",
            "harvestcraft:raspberrypieItem",
            "harvestcraft:cinnamonsugardonutItem",
            "harvestcraft:saltedsunflowerseedsItem",
            "harvestcraft:sunflowerwheatrollsItem",
            "harvestcraft:sunflowerbroccolisaladItem",
            "harvestcraft:cranberrybarItem",
            "harvestcraft:baklavaItem",
            "harvestcraft:baconmushroomburgerItem",
            "harvestcraft:meatystewItem",
            "harvestcraft:shepardspieItem",
            "harvestcraft:sushiItem",
            "harvestcraft:applejellysandwichItem",
            "harvestcraft:blackberryjellysandwichItem",
            "harvestcraft:blueberryjellysandwichItem",
            "harvestcraft:cherryjellysandwichItem",
            "harvestcraft:cranberryjellysandwichItem",
            "harvestcraft:kiwijellysandwichItem",
            "harvestcraft:lemonjellysandwichItem",
            "harvestcraft:limejellysandwichItem",
            "harvestcraft:mangojellysandwichItem",
            "harvestcraft:orangejellysandwichItem",
            "harvestcraft:papayajellysandwichItem",
            "harvestcraft:peachjellysandwichItem",
            "harvestcraft:pomegranatejellysandwichItem",
            "harvestcraft:raspberryjellysandwichItem",
            "harvestcraft:starfruitjellysandwichItem",
            "harvestcraft:strawberryjellysandwichItem",
            "harvestcraft:watermelonjellysandwichItem",
            "harvestcraft:oldworldveggiesoupItem",
            "harvestcraft:spicebunItem",
            "harvestcraft:gingeredrhubarbtartItem",
            "harvestcraft:lambbarleysoupItem",
            "harvestcraft:pumpkinoatsconesItem",
            "harvestcraft:bamboosteamedriceItem",
            "harvestcraft:sweetpotatosouffleItem",
            "harvestcraft:cashewchickenItem",
            "harvestcraft:apricotjellysandwichItem",
            "harvestcraft:figbarItem",
            "harvestcraft:figjellysandwichItem",
            "harvestcraft:grapefruitjellysandwichItem",
            "harvestcraft:pecanpieItem",
            "harvestcraft:persimmonjellysandwichItem",
            "harvestcraft:datenutbreadItem",
            "harvestcraft:maplesyruppancakesItem",
            "harvestcraft:maplesyrupwafflesItem",
            "harvestcraft:mapleoatmealItem",
            "harvestcraft:peachesandcreamoatmealItem",
            "harvestcraft:cinnamonappleoatmealItem",
            "harvestcraft:toastsandwichItem",
            "harvestcraft:potatoandcheesepirogiItem",
            "harvestcraft:zeppoleItem",
            "harvestcraft:sausageinbreadItem",
            "harvestcraft:lavendershortbreadItem",
            "harvestcraft:beefwellingtonItem",
            "harvestcraft:manjuuItem",
            "harvestcraft:generaltsochickenItem",
            "harvestcraft:californiarollItem",
            "harvestcraft:futomakiItem",
            "harvestcraft:beansontoastItem",
            "harvestcraft:vegemiteItem",
            "harvestcraft:fairybreadItem",
            "harvestcraft:timtamItem",
            "harvestcraft:meatpieItem",
            "harvestcraft:chikorollItem",
            "harvestcraft:damperItem",
            "harvestcraft:beetburgerItem",
            "harvestcraft:mcpamItem",
            "harvestcraft:ceasarsaladItem",
            "harvestcraft:chaoscookieItem",
            "harvestcraft:spinachpieItem",
            "harvestcraft:vegemiteontoastItem",
            "harvestcraft:batteredsausageItem",
            "harvestcraft:batterItem",
            "harvestcraft:meatfeastpizzaItem",
            "harvestcraft:mincepieItem",
            "harvestcraft:onionhamburgerItem",
            "harvestcraft:raspberrytrifleItem",
            "harvestcraft:pumpkinmuffinItem",
            "harvestcraft:randomtacoItem",
            "harvestcraft:cornflakesItem",
            "harvestcraft:coleslawburgerItem",
            "harvestcraft:bbqpulledporkItem",
            "harvestcraft:cornishpastyItem",
            "harvestcraft:cottagepieItem",
            "harvestcraft:croissantItem",
            "harvestcraft:dimsumItem",
            "harvestcraft:gooseberryjellysandwichItem",
            "harvestcraft:gooseberrypieItem",
            "harvestcraft:hamsweetpicklesandwichItem",
            "harvestcraft:hushpuppiesItem",
            "harvestcraft:kimchiItem",
            "harvestcraft:mochiItem",
            "harvestcraft:museliItem",
            "harvestcraft:naanItem",
            "harvestcraft:ploughmanslunchItem",
            "harvestcraft:porklomeinItem",
            "harvestcraft:salmonpattiesItem",
            "harvestcraft:sausagerollItem",
            "harvestcraft:sesameballItem",
            "harvestcraft:sesamesnapsItem",
            "harvestcraft:shrimpokrahushpuppiesItem",
            "harvestcraft:pearjellysandwichItem",
            "harvestcraft:plumjellysandwichItem",
            "harvestcraft:honeysandwichItem",
            "harvestcraft:cheeseontoastItem",
            "harvestcraft:tunapotatoItem",
            "harvestcraft:chocolaterollItem",
            "harvestcraft:jamrollItem",
            "harvestcraft:crackerItem",
            "harvestcraft:deluxechickencurryItem",
            "harvestcraft:gravyItem",
            "harvestcraft:yorkshirepuddingItem",
            "harvestcraft:toadintheholeItem"
        ]
    },
    "name": "Grains",
    "color": "yellow"
}