{
    "food": {
        "items": [
            "minecraft:porkchop",
            "minecraft:cooked_porkchop",
            "minecraft:beef",
            "minecraft:cooked_beef",
            "minecraft:chicken",
            "minecraft:cooked_chicken",
            "minecraft:rotten_flesh",
            "minecraft:spider_eye",
            "GrimoireOfGaia:item.GrimoireOfGaia.FoodMeatMorsel",
            "GrimoireOfGaia:item.GrimoireOfGaia.FoodMeat",
            "GrimoireOfGaia:item.GrimoireOfGaia.FoodWitherMeat",
            "GrimoireOfGaia:item.GrimoireOfGaia.FoodPieMeat",
            "MineFactoryReloaded:meat.ingot.raw",
            "MineFactoryReloaded:meat.ingot.cooked",
            "MineFactoryReloaded:meat.nugget.raw",
            "MineFactoryReloaded:meat.nugget.cooked",
            "Natura:impmeat",
            "Natura:impmeat:1",
            "TConstruct:strangeFood",
            "TConstruct:strangeFood:1",
            "TConstruct:strangeFood:2",
            "TConstruct:jerky",
            "TConstruct:jerky:1",
            "TConstruct:jerky:2",
            "TConstruct:jerky:3",
            "TConstruct:jerky:5",
            "TConstruct:jerky:6",
            "TConstruct:jerky:7",
            "Thaumcraft:ItemZombieBrain",
            "ThaumicHorizons:meatTH",
            "ThaumicHorizons:meatCookedTH",
            "ThaumicHorizons:meatNuggetTH",
            "TwilightForest:item.venisonRaw",
            "TwilightForest:item.venisonCooked",
            "TwilightForest:item.hydraChop",
            "TwilightForest:item.meefRaw",
            "TwilightForest:item.meefSteak",
            "TwilightForest:item.meefStroganoff",
            "WitchingGadgets:item.WG_MagicFood:2",
            "harvestcraft:muttonrawItem",
            "harvestcraft:muttoncookedItem",
            "harvestcraft:loadedbakedpotatoItem",
            "harvestcraft:chickensandwichItem",
            "harvestcraft:chickennoodlesoupItem",
            "harvestcraft:chickenpotpieItem",
            "harvestcraft:breadedporkchopItem",
            "harvestcraft:hotdogItem",
            "harvestcraft:bakedhamItem",
            "harvestcraft:hamburgerItem",
            "harvestcraft:cheeseburgerItem",
            "harvestcraft:baconcheeseburgerItem",
            "harvestcraft:potroastItem",
            "harvestcraft:friedeggItem",
            "harvestcraft:scrambledeggItem",
            "harvestcraft:spidereyesoupItem",
            "harvestcraft:zombiejerkyItem",
            "harvestcraft:spagettiandmeatballsItem",
            "harvestcraft:chickenparmasanItem",
            "harvestcraft:pizzaItem",
            "harvestcraft:porklettucewrapItem",
            "harvestcraft:bltItem",
            "harvestcraft:leafychickensandwichItem",
            "harvestcraft:deluxecheeseburgerItem",
            "harvestcraft:delightedmealItem",
            "harvestcraft:hashItem",
            "harvestcraft:heartybreakfastItem",
            "harvestcraft:tacoItem",
            "harvestcraft:bakedbeansItem",
            "harvestcraft:beansandriceItem",
            "harvestcraft:chiliItem",
            "harvestcraft:supremepizzaItem",
            "harvestcraft:omeletItem",
            "harvestcraft:hotwingsItem",
            "harvestcraft:lemonchickenItem",
            "harvestcraft:splitpeasoupItem",
            "harvestcraft:pineapplehamItem",
            "harvestcraft:spicymustardporkItem",
            "harvestcraft:garlicchickenItem",
            "harvestcraft:chickencelerycasseroleItem",
            "harvestcraft:avocadoburritoItem",
            "harvestcraft:chickencurryItem",
            "harvestcraft:orangechickenItem",
            "harvestcraft:friedchickenItem",
            "harvestcraft:footlongItem",
            "harvestcraft:sunflowerbroccolisaladItem",
            "harvestcraft:baconmushroomburgerItem",
            "harvestcraft:meatystewItem",
            "harvestcraft:shepardspieItem",
            "harvestcraft:gingerchickenItem",
            "harvestcraft:lambbarleysoupItem",
            "harvestcraft:honeylemonlambItem",
            "harvestcraft:beefjerkyItem",
            "harvestcraft:leekbaconsoupItem",
            "harvestcraft:cashewchickenItem",
            "harvestcraft:apricotglazedporkItem",
            "harvestcraft:baconwrappeddatesItem",
            "harvestcraft:maplesausageItem",
            "harvestcraft:maplecandiedbaconItem",
            "harvestcraft:sausageinbreadItem",
            "harvestcraft:beefwellingtonItem",
            "harvestcraft:epicbaconItem",
            "harvestcraft:chickengumboItem",
            "harvestcraft:generaltsochickenItem",
            "harvestcraft:beansontoastItem",
            "harvestcraft:meatpieItem",
            "harvestcraft:chikorollItem",
            "harvestcraft:mcpamItem",
            "harvestcraft:chocolatebaconItem",
            "harvestcraft:lambkebabItem",
            "harvestcraft:frograwItem",
            "harvestcraft:turtlerawItem",
            "harvestcraft:frogcookedItem",
            "harvestcraft:turtlecookedItem",
            "harvestcraft:bangersandmashItem",
            "harvestcraft:batteredsausageItem",
            "harvestcraft:chorizoItem",
            "harvestcraft:meatfeastpizzaItem",
            "harvestcraft:mincepieItem",
            "harvestcraft:onionhamburgerItem",
            "harvestcraft:pepperoniItem",
            "harvestcraft:porksausageItem",
            "harvestcraft:suaderoItem",
            "harvestcraft:randomtacoItem",
            "harvestcraft:turkeyrawItem",
            "harvestcraft:turkeycookedItem",
            "harvestcraft:rabbitrawItem",
            "harvestcraft:rabbitcookedItem",
            "harvestcraft:venisonrawItem",
            "harvestcraft:venisoncookedItem",
            "harvestcraft:coleslawburgerItem",
            "harvestcraft:roastchickenItem",
            "harvestcraft:sundayroastItem",
            "harvestcraft:bbqpulledporkItem",
            "harvestcraft:lambwithmintsauceItem",
            "harvestcraft:steakandchipsItem",
            "harvestcraft:cornishpastyItem",
            "harvestcraft:cottagepieItem",
            "harvestcraft:dimsumItem",
            "harvestcraft:hamsweetpicklesandwichItem",
            "harvestcraft:ploughmanslunchItem",
            "harvestcraft:porklomeinItem",
            "harvestcraft:sausageItem",
            "harvestcraft:sausagerollItem",
            "harvestcraft:vindalooItem",
            "harvestcraft:deluxechickencurryItem",
            "harvestcraft:peaandhamsoupItem",
            "harvestcraft:toadintheholeItem",
            "witchery:stew",
            "witchery:stewraw"
        ]
    },
    "name": "Meats",
    "color": "dark_red"
}