{
    "food": {
        "items": [
            "minecraft:fish",
            "minecraft:fish:1",
            "minecraft:fish:2",
            "minecraft:fish:3",
            "minecraft:cooked_fished",
            "minecraft:cooked_fished:1",
            "GrimoireOfGaia:item.GrimoireOfGaia.FoodCoalfish",
            "TConstruct:jerky:4",
            "berriespp:foodGoldfish",
            "harvestcraft:calamarirawItem",
            "harvestcraft:calamaricookedItem",
            "harvestcraft:fishsandwichItem",
            "harvestcraft:fishsticksItem",
            "harvestcraft:fishandchipsItem",
            "harvestcraft:fishlettucewrapItem",
            "harvestcraft:fishtacoItem",
            "harvestcraft:fishdinnerItem",
            "harvestcraft:coconutshrimpItem",
            "harvestcraft:sushiItem",
            "harvestcraft:pistachiobakedsalmonItem",
            "harvestcraft:californiarollItem",
            "harvestcraft:anchovyrawItem",
            "harvestcraft:bassrawItem",
            "harvestcraft:carprawItem",
            "harvestcraft:catfishrawItem",
            "harvestcraft:charrrawItem",
            "harvestcraft:clamrawItem",
            "harvestcraft:crabrawItem",
            "harvestcraft:crayfishrawItem",
            "harvestcraft:eelrawItem",
            "harvestcraft:grouperrawItem",
            "harvestcraft:herringrawItem",
            "harvestcraft:jellyfishrawItem",
            "harvestcraft:mudfishrawItem",
            "harvestcraft:octopusrawItem",
            "harvestcraft:perchrawItem",
            "harvestcraft:scalloprawItem",
            "harvestcraft:shrimprawItem",
            "harvestcraft:snailrawItem",
            "harvestcraft:snapperrawItem",
            "harvestcraft:tilapiarawItem",
            "harvestcraft:troutrawItem",
            "harvestcraft:tunarawItem",
            "harvestcraft:walleyerawItem",
            "harvestcraft:clamcookedItem",
            "harvestcraft:crabcookedItem",
            "harvestcraft:crayfishcookedItem",
            "harvestcraft:octopuscookedItem",
            "harvestcraft:scallopcookedItem",
            "harvestcraft:shrimpcookedItem",
            "harvestcraft:snailcookedItem",
            "harvestcraft:greenheartfishItem",
            "harvestcraft:salmonpattiesItem",
            "harvestcraft:shrimpokrahushpuppiesItem",
            "harvestcraft:tunapotatoItem"
        ]
    },
    "name": "Seafood",
    "color": "aqua"
}